{
	"iplugin": {
		"interfaces": [
			"IPlugin/1.0"
			, "IUIElement/1.0"
		],
		"references": {
			"IUserTasksCalendar/1.0": 1
		},
		"info": {
			"name": "Calendar",
			"about": "UserTasksCalendarView"
		}
	}
}
