{
	"iplugin": {
		"interfaces": ["IPlugin/1.0", "IUIElement/1.0"],
		"references": {
			"IUserTaskDataExtention/1.0": 1,
			"IUserTaskDateDataExtention/1.0": 1,
			"IUserTaskProjectDataExtention/1.0": 1
		},
		"info": {
			"name": "Tasks 2.0",
			"about": "ToDo list view on QML"
		}
	}
}
