{
"iplugin": {
		"interfaces": ["IPlugin/1.0", "IHabitsTrackerDataExtention/1.0", "IDataExtention/1.0"],
		"references": {},
		"info": {
			"name": "HabitsTrackerDataExtention",
			"about": "Core plugin of user task management"
		}
	}
}
