{
	"iplugin": {
		"interfaces": ["IPlugin/1.0", "IUIElement/1.0"],
		"references": {
			"IPomodoroManager/1.0": 1
		},
		"info": {
			"name": "Pomodoro",
			"about": "View plugin for plugin with interface IPluginLinker. Allows to load new plugins, unload existing plugins, read about plugin (this text)."
		}
	}
}
